{
    "variants": {
        "facing=north": { "model": "mpc:kinetic_generator" },
        "facing=south": { "model": "mpc:kinetic_generator", "y": 180 },
        "facing=west":  { "model": "mpc:kinetic_generator", "y": 270 },
        "facing=east":  { "model": "mpc:kinetic_generator", "y": 90 }
    }
}