{
    "variants": {
        "facing=up": { "model": "mpc:steam_engine" },
        "facing=down": { "model": "mpc:steam_engine", "x": 180 },
        "facing=west":  { "model": "mpc:steam_engine", "x": 270, "y": 90 },
        "facing=east":  { "model": "mpc:steam_engine", "x": 270, "y": 270 },
        "facing=south":  { "model": "mpc:steam_engine", "x": 270 },
        "facing=north":  { "model": "mpc:steam_engine", "x": 90 }
    }
}