{
	"parent": "block/cube",
    "textures": {
		"particle": "mpc:blocks/electrical/machine_base",
		"up": "mpc:blocks/electrical/machine_up_vent",
		"down": "mpc:blocks/electrical/machine_down",
		"east": "mpc:blocks/electrical/machine_base",
		"west": "mpc:blocks/electrical/machine_base",
		"south": "mpc:blocks/electrical/machine_base",
		"north": "mpc:blocks/electrical/electric_furnace_off"
    }
}