{
    "anvil" : {"category": "block", "sounds": ["mpc:anvil"], "stream": true, "subtitle": "subtitles.mpc:anvil" },
    "hammer" : {"category": "block", "sounds": ["mpc:hammer"], "stream": true, "subtitle": "subtitles.mpc:hammer" },
    "teleported" : {"category": "block", "sounds": ["mpc:teleported"], "stream": true, "subtitle": "subtitles.mpc:teleported" },
    "laser_loop": {"category": "block", "sounds": ["mpc:laser_loop"], "stream": true, "subtitle": "subtitles.mpc:laser_loop" }
}