{
    "parent": "block/cube",
    "textures": {
        "particle": "mpc:blocks/log_rubber_resin_0",
        "up": "mpc:blocks/log_rubber_top",
        "down": "mpc:blocks/log_rubber_top",
        "east": "mpc:blocks/log_rubber_resin_0",
        "west": "mpc:blocks/log_rubber_resin_0",
        "north": "mpc:blocks/log_rubber_resin_0",
        "south": "mpc:blocks/log_rubber_resin_1"
    }
}